

** r8s simulation run **

Diversification simulation:
seed = 6484
nreps=1
ntaxa=10
spec rate = 1.000000
extinct rate=0.000000
MODEL=Backward birth-death model
(Root node time normalized to one)
...generating replicate tree number 1
Duration of tree = 0.830391 age=1.816128
[Printing tree 1]

[TREE DESCRIPTION of tree SIMTREE]

tree SIMTREE = (((t3:0.184627,t4:0.184627):1.156377,(((t1:0.360674,t2:0.360674):0.575937,t6:0.936611):0.367204,((t7:0.405253,t8:0.405253):0.014013,t9:0.419266):0.884549):0.037188):0.475125,(t5:0.706145,t10:0.706145):1.109983);
