0.1028
0.0899
0.0792
0.0702
0.0627
0.0565
0.0514
0.0470
0.0433
0.0400
0.0369
0.0341
0.0314
0.0289
0.0266
0.0245
0.0225
0.0206
0.0188
0.0171
0.0155
0.0141
0.0127
0.0114
0.0100
0.0087
0.0075
0.0063
0.0052
0.0042
