

** r8s simulation run **

Diversification simulation:
seed = 4885
nreps=1
ntaxa=10
spec rate = 1.000000
extinct rate=0.000000
MODEL=Backward birth-death model
(Root node time normalized to one)
...generating replicate tree number 1
Duration of tree = 0.702514 age=2.040455
[Printing tree 1]

[TREE DESCRIPTION of tree SIMTREE]

tree SIMTREE = (((t10:0.749309,t4:0.749309):0.290866,t5:1.040175):1.000279,(((t7:0.188720,(t2:0.053531,t9:0.053531):0.135189):0.412725,t3:0.601445):0.171303,((t1:0.403130,t6:0.403130):0.069988,t8:0.473118):0.299630):1.267707);
