

** r8s simulation run **

Diversification simulation:
seed = 8799
nreps=1
ntaxa=10
spec rate = 1.000000
extinct rate=0.000000
MODEL=Backward birth-death model
(Root node time normalized to one)
...generating replicate tree number 1
Duration of tree = 0.777176 age=1.200971
[Printing tree 1]

[TREE DESCRIPTION of tree SIMTREE]

tree SIMTREE = ((t3:1.011189,((t4:0.766486,t2:0.766486):0.226091,t10:0.992577):0.018612):0.189783,((t1:0.676257,(t6:0.453274,(t9:0.374240,t7:0.374240):0.079034):0.222983):0.295712,(t5:0.547619,t8:0.547619):0.424350):0.229002);
