

** r8s simulation run **

Diversification simulation:
seed = 1200
nreps=1
ntaxa=10
spec rate = 1.000000
extinct rate=0.000000
MODEL=Backward birth-death model
(Root node time normalized to one)
...generating replicate tree number 1
Duration of tree = 1.058052 age=2.355237
[Printing tree 1]

[TREE DESCRIPTION of tree SIMTREE]

tree SIMTREE = ((t5:1.678755,(t7:1.310693,((t6:0.479441,t3:0.479441):0.104433,(t1:0.106963,t2:0.106963):0.476911):0.726820):0.368062):0.676482,(((t8:0.784963,t9:0.784963):0.086924,t4:0.871888):0.478770,t10:1.350657):1.004580);
