

** r8s simulation run **

Diversification simulation:
seed = 5363
nreps=1
ntaxa=10
spec rate = 1.000000
extinct rate=0.000000
MODEL=Backward birth-death model
(Root node time normalized to one)
...generating replicate tree number 1
Duration of tree = 0.343308 age=1.264076
[Printing tree 1]

[TREE DESCRIPTION of tree SIMTREE]

tree SIMTREE = (((t6:0.225505,(t7:0.118109,t3:0.118109):0.107396):0.228380,((t2:0.234639,(t10:0.008237,t4:0.008237):0.226401):0.048054,(t8:0.263796,(t1:0.238833,t9:0.238833):0.024963):0.018896):0.171193):0.810190,t5:1.264076);
