

** r8s simulation run **

Diversification simulation:
seed = 7161
nreps=1
ntaxa=10
spec rate = 1.000000
extinct rate=0.000000
MODEL=Backward birth-death model
(Root node time normalized to one)
...generating replicate tree number 1
Duration of tree = 0.677745 age=1.891369
[Printing tree 1]

[TREE DESCRIPTION of tree SIMTREE]

tree SIMTREE = ((t5:0.513346,t7:0.513346):1.378022,(((t2:0.326601,t10:0.326601):0.315655,(t4:0.133515,t6:0.133515):0.508741):0.693164,(((t3:0.310030,t1:0.310030):0.085917,t8:0.395948):0.155274,t9:0.551222):0.784198):0.555949);
