

** r8s simulation run **

Diversification simulation:
seed = 702
nreps=1
ntaxa=10
spec rate = 1.000000
extinct rate=0.000000
MODEL=Backward birth-death model
(Root node time normalized to one)
...generating replicate tree number 1
Duration of tree = 1.041793 age=1.569245
[Printing tree 1]

[TREE DESCRIPTION of tree SIMTREE]

tree SIMTREE = ((((t5:0.891319,((t1:0.282557,t10:0.282557):0.578385,t8:0.860942):0.030377):0.168229,(t7:0.554568,t9:0.554568):0.504980):0.179953,t4:1.239501):0.329744,((t2:1.353242,t3:1.353242):0.211969,t6:1.565211):0.004034);
