

** r8s simulation run **

Diversification simulation:
seed = 2352
nreps=1
ntaxa=10
spec rate = 1.000000
extinct rate=0.000000
MODEL=Backward birth-death model
(Root node time normalized to one)
...generating replicate tree number 1
Duration of tree = 1.168046 age=2.085628
[Printing tree 1]

[TREE DESCRIPTION of tree SIMTREE]

tree SIMTREE = (((((t5:0.934530,(t9:0.036480,t1:0.036480):0.898050):0.210603,t2:1.145133):0.524317,((t8:0.249588,t3:0.249588):1.110534,t10:1.360121):0.309328):0.168284,(t6:1.193747,t7:1.193747):0.643986):0.247895,t4:2.085628);
