

** r8s simulation run **

Diversification simulation:
seed = 2167
nreps=1
ntaxa=10
spec rate = 1.000000
extinct rate=0.000000
MODEL=Backward birth-death model
(Root node time normalized to one)
...generating replicate tree number 1
Duration of tree = 1.002670 age=2.130483
[Printing tree 1]

[TREE DESCRIPTION of tree SIMTREE]

tree SIMTREE = ((t6:0.038171,t7:0.038171):2.092312,(((t3:0.533129,t10:0.533129):0.740813,t1:1.273942):0.537281,(((t4:0.778132,t8:0.778132):0.272379,(t2:0.038419,t5:0.038419):1.012092):0.319511,t9:1.370022):0.441201):0.319260);
