[TYPE] NUCLEOTIDE 1  
[MODEL]    GTRexample
  [submodel]  GTR 1.26195738509 0.140055369456 0.287783034615 0.35766826674 0.308267431018   //  GTR: a=TtoC, b=TtoA, c=TtoG, d=CtoA, e=CtoG, f=AtoG=1
  [statefreq] 0.311475 0.191363 0.300414 0.196748            //  pi_T=0.1, pi_C=0.2, pi_A=0.3, pi_G=0.4
  [indelmodel]  USER long_gap.txt
  [indelrate] 0.031
[TREE] tree1
(((t2:0.399906,(t4:0.375368,t5:0.375368):0.024538):0.166990,t9:0.566896):1.505924,((t3:0.690262,(t8:0.385017,t6:0.385017):0.305246):0.050272,((t1:0.198224,t7:0.198224):0.432550,t10:0.630774):0.109761):1.332287);
  [treedepth] 1.6
  [branchlengths] NON-ULTRAMETRIC
[PARTITIONS] pGTR  [tree1 GTRexample 1000] //  tree 1, model GTRexample, root length of 1000
[SETTINGS]
  [output] FASTA    // FASTA, NEXUS, PHYLIP or PHYLIPT
  [randomseed] 22041
[EVOLVE]
  pGTR 1 GTRout  
