

** r8s simulation run **

Diversification simulation:
seed = 2399
nreps=1
ntaxa=10
spec rate = 1.000000
extinct rate=0.000000
MODEL=Backward birth-death model
(Root node time normalized to one)
...generating replicate tree number 1
Duration of tree = 1.092205 age=3.388466
[Printing tree 1]

[TREE DESCRIPTION of tree SIMTREE]

tree SIMTREE = ((t3:0.075987,t5:0.075987):3.312479,(((t7:0.493327,t8:0.493327):0.975054,t6:1.468381):0.625574,(t4:1.437108,(t1:0.418106,(t10:0.348857,(t9:0.105660,t2:0.105660):0.243196):0.069249):1.019002):0.656846):1.294512);
