

** r8s simulation run **

Diversification simulation:
seed = 8300
nreps=1
ntaxa=10
spec rate = 1.000000
extinct rate=0.000000
MODEL=Backward birth-death model
(Root node time normalized to one)
...generating replicate tree number 1
Duration of tree = 1.184255 age=2.876694
[Printing tree 1]

[TREE DESCRIPTION of tree SIMTREE]

tree SIMTREE = ((((t7:0.832698,(t1:0.780124,(t6:0.206939,t5:0.206939):0.573186):0.052574):0.825320,((t2:0.709379,t10:0.709379):0.079959,t3:0.789337):0.868681):0.617895,t9:2.275913):0.600781,(t4:0.529193,t8:0.529193):2.347501);
