

** r8s simulation run **

Diversification simulation:
seed = 5301
nreps=1
ntaxa=10
spec rate = 1.000000
extinct rate=0.000000
MODEL=Backward birth-death model
(Root node time normalized to one)
...generating replicate tree number 1
Duration of tree = 0.568973 age=1.184787
[Printing tree 1]

[TREE DESCRIPTION of tree SIMTREE]

tree SIMTREE = ((t4:1.137279,((t1:0.499665,(t10:0.326081,((t8:0.168581,t2:0.168581):0.092594,t3:0.261176):0.064905):0.173584):0.304447,((t9:0.365214,t5:0.365214):0.008644,t6:0.373858):0.430253):0.333167):0.047508,t7:1.184787);
